{
  "widgets": [
    {
      "id": 1,
      "name": "Widget A",
      "description": "Small, Red Widget",
      "color": "red",
      "size": "small",
      "price": 10,
      "quantity": 99
    },
    {
      "id": 2,
      "name": "Widget B",
      "description": "Medium, Blue Widget",
      "color": "blue",
      "size": "medium",
      "price": 5,
      "quantity": 50
    },
    {
      "id": 3,
      "name": "Widget C",
      "description": "Large, Yellow Widget",
      "color": "yellow",
      "size": "large",
      "price": 15,
      "quantity": 75
    },
    {
      "id": 4,
      "name": "Widget D",
      "description": "Medium, Red Widget",
      "color": "red",
      "size": "medium",
      "price": 20,
      "quantity": 21
    },
    {
      "name": "f",
      "description": "f",
      "color": "f",
      "size": "f",
      "price": 23.23,
      "quantity": 2,
      "id": 5
    }
  ]
}